{
  "project_info": {
    "project_number": "550839324948",
    "firebase_url": "https://salogram-062020.firebaseio.com",
    "project_id": "salogram-062020",
    "storage_bucket": "salogram-062020.appspot.com"
  },
  "client": [
    {
      "client_info": {
        "mobilesdk_app_id": "1:550839324948:android:3a70a126b819d2f2303201",
        "android_client_info": {
          "package_name": "it.ghd.salogram"
        }
      },
      "oauth_client": [
        {
          "client_id": "550839324948-bd1tn0mkcq7vo7om0b7rmltjj7ti0jjq.apps.googleusercontent.com",
          "client_type": 1,
          "android_info": {
            "package_name": "it.ghd.salogram",
            "certificate_hash": "8e2c1fe3f31693c78b163527bbbd0bf0a5484dd5"
          }
        },
        {
          "client_id": "550839324948-meerkojnkjme198953v78nrs1lced6l1.apps.googleusercontent.com",
          "client_type": 1,
          "android_info": {
            "package_name": "it.ghd.salogram",
            "certificate_hash": "d768d3df66af8e8ac4622a06de1e6921f38a9d34"
          }
        },
        {
          "client_id": "550839324948-jdhs0ueti0liol44ugli8uabpqj0q10c.apps.googleusercontent.com",
          "client_type": 3
        }
      ],
      "api_key": [
        {
          "current_key": "AIzaSyDWfq0h0gzY0l4huCP794GoCpp3ideZe20"
        }
      ],
      "services": {
        "appinvite_service": {
          "other_platform_oauth_client": [
            {
              "client_id": "550839324948-jdhs0ueti0liol44ugli8uabpqj0q10c.apps.googleusercontent.com",
              "client_type": 3
            },
            {
              "client_id": "550839324948-8updh44bcuqhnj0bj2orjclaktmcmqo1.apps.googleusercontent.com",
              "client_type": 2,
              "ios_info": {
                "bundle_id": "it.ghd.salogram"
              }
            }
          ]
        }
      }
    }
  ],
  "configuration_version": "1"
}